<?xml version="1.0" encoding="UTF-8" standalone="no"?>
<!-- Created with Inkscape (http://www.inkscape.org/) -->

<svg
   xmlns:dc="http://purl.org/dc/elements/1.1/"
   xmlns:cc="http://creativecommons.org/ns#"
   xmlns:rdf="http://www.w3.org/1999/02/22-rdf-syntax-ns#"
   xmlns:svg="http://www.w3.org/2000/svg"
   xmlns="http://www.w3.org/2000/svg"
   xmlns:xlink="http://www.w3.org/1999/xlink"
   xmlns:sodipodi="http://sodipodi.sourceforge.net/DTD/sodipodi-0.dtd"
   xmlns:inkscape="http://www.inkscape.org/namespaces/inkscape"
   width="270.14301mm"
   height="293.94748mm"
   viewBox="0 0 270.14301 293.94748"
   version="1.1"
   id="svg1026"
   inkscape:version="0.92.2 2405546, 2018-03-11"
   sodipodi:docname="single-kontr-logo.svg">
  <defs
     id="defs1020">
    <filter
       style="color-interpolation-filters:sRGB"
       inkscape:label="Drop Shadow"
       id="filter961-36">
      <feFlood
         flood-opacity="0.498039"
         flood-color="rgb(0,0,0)"
         result="flood"
         id="feFlood951-7" />
      <feComposite
         in="flood"
         in2="SourceGraphic"
         operator="in"
         result="composite1"
         id="feComposite953-5" />
      <feGaussianBlur
         in="composite1"
         stdDeviation="3"
         result="blur"
         id="feGaussianBlur955-3" />
      <feOffset
         dx="6"
         dy="6"
         result="offset"
         id="feOffset957-5" />
      <feComposite
         in="SourceGraphic"
         in2="offset"
         operator="over"
         result="composite2"
         id="feComposite959-6" />
    </filter>
    <radialGradient
       inkscape:collect="always"
       xlink:href="#linearGradient6000"
       id="radialGradient6014-2"
       gradientUnits="userSpaceOnUse"
       cx="1910.1562"
       cy="689.0625"
       fx="1910.1562"
       fy="689.0625"
       r="350"
       gradientTransform="matrix(0.36648765,-0.00455323,0.00431439,0.34726372,-683.36683,-87.803317)" />
    <linearGradient
       inkscape:collect="always"
       id="linearGradient6000">
      <stop
         style="stop-color:#aa0000;stop-opacity:1;"
         offset="0"
         id="stop5996" />
      <stop
         style="stop-color:#aa0000;stop-opacity:0;"
         offset="1"
         id="stop5998" />
    </linearGradient>
    <linearGradient
       inkscape:collect="always"
       xlink:href="#linearGradient947"
       id="linearGradient6012-2"
       gradientUnits="userSpaceOnUse"
       gradientTransform="matrix(0.26458333,0,0,0.26458333,-133.80359,-17.484)"
       x1="575.3125"
       y1="562.42505"
       x2="580"
       y2="1160" />
    <linearGradient
       inkscape:collect="always"
       id="linearGradient947">
      <stop
         style="stop-color:#ffffff;stop-opacity:1;"
         offset="0"
         id="stop943" />
      <stop
         style="stop-color:#cccccc;stop-opacity:1"
         offset="1"
         id="stop945" />
    </linearGradient>
  </defs>
  <sodipodi:namedview
     id="base"
     pagecolor="#ffffff"
     bordercolor="#666666"
     borderopacity="1.0"
     inkscape:pageopacity="0.0"
     inkscape:pageshadow="2"
     inkscape:zoom="0.35"
     inkscape:cx="276.22071"
     inkscape:cy="532.63417"
     inkscape:document-units="mm"
     inkscape:current-layer="layer1"
     showgrid="false"
     inkscape:window-width="1920"
     inkscape:window-height="1035"
     inkscape:window-x="0"
     inkscape:window-y="22"
     inkscape:window-maximized="1"
     showborder="false"
     fit-margin-top="0"
     fit-margin-left="0"
     fit-margin-right="0"
     fit-margin-bottom="0" />
  <metadata
     id="metadata1023">
    <rdf:RDF>
      <cc:Work
         rdf:about="">
        <dc:format>image/svg+xml</dc:format>
        <dc:type
           rdf:resource="http://purl.org/dc/dcmitype/StillImage" />
        <dc:title></dc:title>
      </cc:Work>
    </rdf:RDF>
  </metadata>
  <g
     inkscape:label="Layer 1"
     inkscape:groupmode="layer"
     id="layer1"
     transform="translate(115.41673,4.1880168)">
    <path
       sodipodi:type="star"
       style="display:inline;opacity:1;fill:#140000;fill-opacity:1;stroke:url(#linearGradient6012-2);stroke-width:0.56599998;stroke-miterlimit:4;stroke-dasharray:none"
       id="path6004-9"
       sodipodi:sides="6"
       sodipodi:cx="19.654751"
       sodipodi:cy="142.78572"
       sodipodi:r1="146.64696"
       sodipodi:r2="127"
       sodipodi:arg1="1.5707963"
       sodipodi:arg2="2.0943951"
       inkscape:flatsided="true"
       inkscape:rounded="0"
       inkscape:randomized="0"
       d="m 19.654755,289.43268 -126.999995,-73.32348 0,-146.646954 126.999987,-73.3234826 126.999993,73.3234756 0,146.646961 z"
       inkscape:export-xdpi="96"
       inkscape:export-ydpi="96" />
    <path
       inkscape:export-ydpi="96"
       inkscape:export-xdpi="96"
       inkscape:connector-curvature="0"
       id="path6006-3"
       d="M 19.654757,50.181521 A 92.604167,92.604093 0 0 0 7.5613967,51.086475 L 1.7543167,71.76144 A 73.311631,73.31157 0 0 0 -13.390903,77.356875 L -31.322113,65.53598 a 92.604167,92.604093 0 0 0 -22.41373,20.963757 l 10.52288,18.742083 a 73.311631,73.31157 0 0 0 -6.7156,14.63518 l -21.13135,4.34023 a 92.604167,92.604093 0 0 0 -1.88949,18.56846 92.604167,92.604093 0 0 0 0.90498,12.09341 l 20.67494,5.80705 a 73.311631,73.31157 0 0 0 5.59546,15.14525 l -11.82092,17.93121 a 92.604167,92.604093 0 0 0 20.96378,22.41371 l 18.74211,-10.52288 a 73.311631,73.31157 0 0 0 14.6357597,6.7156 l 4.33962,21.13135 a 92.604167,92.604093 0 0 0 18.5684303,1.88946 92.604167,92.604093 0 0 0 12.09342,-0.90495 l 5.8071,-20.67494 a 73.311631,73.31157 0 0 0 15.14522,-5.59543 l 17.93119,11.82089 a 92.604167,92.604093 0 0 0 22.4137,-20.96376 l -10.52283,-18.74268 a 73.311631,73.31157 0 0 0 6.71555,-14.63522 l 21.131373,-4.33961 a 92.604167,92.604093 0 0 0 1.88944,-18.56846 92.604167,92.604093 0 0 0 -0.90495,-12.09339 L 90.679027,124.88525 A 73.311631,73.31157 0 0 0 85.083597,109.74 L 96.904517,91.808787 A 92.604167,92.604093 0 0 0 75.940707,69.395086 L 57.198627,79.917962 A 73.311631,73.31157 0 0 0 42.563467,73.202335 L 38.223217,52.07099 a 92.604167,92.604093 0 0 0 -18.56846,-1.889469 z m 0,54.019109 a 38.585069,38.585039 0 0 1 38.58506,38.58506 38.585069,38.585039 0 0 1 -38.58506,38.58508 38.585069,38.585039 0 0 1 -38.58506,-38.58508 38.585069,38.585039 0 0 1 38.58506,-38.58506 z"
       style="display:inline;opacity:1;fill:url(#radialGradient6014-2);fill-opacity:1;stroke-width:0.19523811" />
    <text
       xml:space="preserve"
       style="font-style:normal;font-variant:normal;font-weight:normal;font-stretch:normal;font-size:192px;line-height:1.25;font-family:Audiowide;-inkscape-font-specification:Audiowide;letter-spacing:0px;word-spacing:0px;display:inline;fill:#ffffff;fill-opacity:1;stroke:none;filter:url(#filter961-36)"
       x="205.73438"
       y="667.21875"
       id="text6010-6"
       inkscape:export-xdpi="96"
       inkscape:export-ydpi="96"
       transform="matrix(0.29627031,0,0,0.29627031,-158.10743,-34.976477)"><tspan
         sodipodi:role="line"
         id="tspan6008-0"
         x="205.73438"
         y="667.21875"
         style="fill:#ffffff;fill-opacity:1">KONTR</tspan></text>
  </g>
</svg>
